#Command: "C:\Program Files (x86)\Microsoft Visual Studio\2017\Community\VC\Tools\MSVC\14.16.27023\bin\HostX86\x86\link.exe" /ERRORREPORT:PROMPT @C:\Users\tanya\AppData\Local\Temp\tmpc50949d3e3fd418e841b66008c5b15b6.rsp /incremental /nologo /fullbuild
^C:\USERS\TANYA\DESKTOP\ЛАБОРАТОРНЫЕ\АЛГОРИТМЫ\ЛАБА 4\LAB4\LAB4\DEBUG\FUNCTIONS.OBJ|C:\USERS\TANYA\DESKTOP\ЛАБОРАТОРНЫЕ\АЛГОРИТМЫ\ЛАБА 4\LAB4\LAB4\DEBUG\LAB4.OBJ|C:\USERS\TANYA\DESKTOP\ЛАБОРАТОРНЫЕ\АЛГОРИТМЫ\ЛАБА 4\LAB4\LAB4\DEBUG\PCH.OBJ|C:\USERS\TANYA\DESKTOP\ЛАБОРАТОРНЫЕ\АЛГОРИТМЫ\ЛАБА 4\LAB4\LAB4\DEBUG\QUEUE.OBJ
C:\USERS\TANYA\DESKTOP\Лабораторные\Алгоритмы\лаба 4\LAB4\DEBUG\LAB4.PDB
