^C:\USERS\TANYA\DOWNLOADS\AISTRD4-MASTER\AISTRD4-MASTER\LAB4\UNITTEST1\STDAFX.CPP
C:\USERS\TANYA\DOWNLOADS\AISTRD4-MASTER\AISTRD4-MASTER\LAB4\UNITTEST1\DEBUG\UNITTEST1.PCH
C:\USERS\TANYA\DOWNLOADS\AISTRD4-MASTER\AISTRD4-MASTER\LAB4\UNITTEST1\DEBUG\UNITTEST1.PDB
C:\USERS\TANYA\DOWNLOADS\AISTRD4-MASTER\AISTRD4-MASTER\LAB4\UNITTEST1\DEBUG\UNITTEST1.IDB
C:\USERS\TANYA\DOWNLOADS\AISTRD4-MASTER\AISTRD4-MASTER\LAB4\UNITTEST1\DEBUG\STDAFX.OBJ
^C:\USERS\TANYA\DOWNLOADS\AISTRD4-MASTER\AISTRD4-MASTER\LAB4\UNITTEST1\UNITTEST1.CPP
C:\USERS\TANYA\DOWNLOADS\AISTRD4-MASTER\AISTRD4-MASTER\LAB4\UNITTEST1\DEBUG\UNITTEST1.PDB
C:\USERS\TANYA\DOWNLOADS\AISTRD4-MASTER\AISTRD4-MASTER\LAB4\UNITTEST1\DEBUG\UNITTEST1.IDB
C:\USERS\TANYA\DOWNLOADS\AISTRD4-MASTER\AISTRD4-MASTER\LAB4\UNITTEST1\DEBUG\UNITTEST1.OBJ
